<?xml version="1.0" encoding="UTF-8" standalone="no"?>
<svg
   xmlns:dc="http://purl.org/dc/elements/1.1/"
   xmlns:cc="http://creativecommons.org/ns#"
   xmlns:rdf="http://www.w3.org/1999/02/22-rdf-syntax-ns#"
   xmlns:svg="http://www.w3.org/2000/svg"
   xmlns="http://www.w3.org/2000/svg"
   xmlns:sodipodi="http://sodipodi.sourceforge.net/DTD/sodipodi-0.dtd"
   xmlns:inkscape="http://www.inkscape.org/namespaces/inkscape"
   sodipodi:docname="extended-information_chance-of-snow.svg"
   viewBox="0 0 90 90.000001"
   inkscape:version="1.0 (6e3e5246a0, 2020-05-07)"
   version="1.1"
   id="svg6138"
   height="90"
   width="90">
  <defs
     id="defs6140" />
  <sodipodi:namedview
     inkscape:window-maximized="1"
     inkscape:window-y="0"
     inkscape:window-x="64"
     inkscape:window-height="1043"
     inkscape:window-width="1856"
     inkscape:document-rotation="0"
     inkscape:guide-bbox="true"
     showguides="false"
     inkscape:snap-center="true"
     inkscape:snap-object-midpoints="true"
     inkscape:snap-others="true"
     inkscape:snap-midpoints="true"
     inkscape:snap-smooth-nodes="true"
     inkscape:object-nodes="true"
     inkscape:snap-intersection-paths="true"
     inkscape:object-paths="true"
     inkscape:bbox-nodes="true"
     inkscape:snap-bbox-edge-midpoints="true"
     inkscape:snap-bbox-midpoints="true"
     inkscape:bbox-paths="true"
     inkscape:snap-bbox="true"
     inkscape:snap-global="true"
     fit-margin-bottom="0"
     fit-margin-right="0"
     fit-margin-left="0"
     fit-margin-top="0"
     showgrid="true"
     inkscape:current-layer="g6442"
     inkscape:document-units="px"
     inkscape:cy="19.378885"
     inkscape:cx="63.899294"
     inkscape:zoom="5.0931702"
     inkscape:pageshadow="2"
     inkscape:pageopacity="0.0"
     borderopacity="1.0"
     bordercolor="#666666"
     pagecolor="#ffffff"
     id="base">
    <inkscape:grid
       empspacing="6"
       id="grid6700"
       type="xygrid" />
    <sodipodi:guide
       id="guide4064"
       position="90,87"
       orientation="0,1" />
    <sodipodi:guide
       id="guide4066"
       position="89,84"
       orientation="0,1" />
    <sodipodi:guide
       id="guide4068"
       position="3,69"
       orientation="1,0" />
    <sodipodi:guide
       id="guide4070"
       position="6,60"
       orientation="1,0" />
    <sodipodi:guide
       id="guide4072"
       position="87,58"
       orientation="1,0" />
    <sodipodi:guide
       id="guide4074"
       position="84,47"
       orientation="1,0" />
    <sodipodi:guide
       id="guide4076"
       position="77,3"
       orientation="0,1" />
    <sodipodi:guide
       id="guide4078"
       position="81,6"
       orientation="0,1" />
    <sodipodi:guide
       id="guide4080"
       position="81,25"
       orientation="1,0" />
    <sodipodi:guide
       id="guide4082"
       position="78,9"
       orientation="0,1" />
    <sodipodi:guide
       id="guide4084"
       position="79,81"
       orientation="0,1" />
    <sodipodi:guide
       id="guide4086"
       position="9,39"
       orientation="1,0" />
  </sodipodi:namedview>
  <metadata
     id="metadata6143">
    <rdf:RDF>
      <cc:Work
         rdf:about="">
        <dc:format>image/svg+xml</dc:format>
        <dc:type
           rdf:resource="http://purl.org/dc/dcmitype/StillImage" />
        <dc:title />
      </cc:Work>
    </rdf:RDF>
  </metadata>
  <g
     transform="translate(-283.57144,-358.79068)"
     id="layer1"
     inkscape:groupmode="layer"
     inkscape:label="Layer 1">
    <g
       inkscape:export-ydpi="90"
       inkscape:export-xdpi="90"
       inkscape:export-filename="envelope02.png"
       id="g5937"
       transform="translate(169.57144,223.42822)" />
    <g
       transform="translate(-753.45981,336.4283)"
       id="g6442">
      <path
         style="color:#000000;fill:#808080;stroke-width:2.66647"
         d="m 1053.1746,37.606171 3.4644,-0.61316 v 32.44441 h -3.4644 z"
         id="path12" />
      <rect
         style="color:#000000;fill:#808080;stroke-width:2.66641"
         transform="matrix(-0.50004273,-0.86600073,0.86603737,-0.49997927,0,0)"
         height="32.425575"
         width="3.4634442"
         y="870.79596"
         x="-575.11151"
         id="rect14" />
      <rect
         style="color:#000000;fill:#808080;stroke-width:2.66641"
         transform="matrix(0.50004273,-0.86600073,-0.86603737,-0.49997927,0,0)"
         height="32.425575"
         width="3.4634442"
         y="-956.51575"
         x="479.61993"
         id="rect16" />
      <path
         style="color:#000000;fill:#808080;stroke-width:2.66647"
         d="m 1099.047,49.602871 5.1153,-0.90535 v 47.88016 h -5.1153 z"
         id="path18" />
      <rect
         style="color:#000000;fill:#808080;stroke-width:2.66641"
         transform="matrix(-0.50004273,-0.86600073,0.86603737,-0.49997927,0,0)"
         height="47.865059"
         width="5.1165123"
         y="893.72852"
         x="-616.17169"
         id="rect20" />
      <rect
         style="color:#000000;fill:#808080;stroke-width:2.66641"
         transform="matrix(0.50004273,-0.86600073,-0.86603737,-0.49997927,0,0)"
         height="47.865059"
         width="5.1165123"
         y="-1014.3799"
         x="485.48566"
         id="rect22" />
      <rect
         y="22.362379"
         x="1037.0312"
         height="90"
         width="90"
         id="rect1687"
         style="fill:none;stroke:none" />
    </g>
  </g>
</svg>
